{
  "appId": "io.ionic.starter",
  "appName": "parauapi",
  "bundledWebRuntime": false,
  "npmClient": "npm",
  "webDir": "www",
  "plugins": {
    "SplashScreen": {
      "launchShowDuration": 0
    }
  },
  "cordova": {},
  "server": {
    "url": "http://192.168.60.16:8100",
    "cleartext": true
  }
}
